{
  "properties": [
    {
      "name": "enterprise.security.browser.login-page",
      "type": "java.lang.String",
      "description": "Description for enterprise.security.browser.login-page."
    },
    {
      "name": "enterprise.security.oauth2.jwt-sign-key",
      "type": "java.lang.String",
      "description": "Description for enterprise.security.oauth2.jwt-sign-key."
    },
    {
      "name": "enterprise.security.oauth2.ssl-key-certificate",
      "type": "java.lang.String",
      "description": "Description for enterprise.security.oauth2.ssl-key-certificate."
    },
    {
      "name": "enterprise.security.oauth2.ssl-key-phrase",
      "type": "java.lang.String",
      "description": "Description for enterprise.security.oauth2.ssl-key-phrase."
    },
    {
      "name": "enterprise.security.oauth2.ssl-key-pair",
      "type": "java.lang.String",
      "description": "Description for enterprise.security.oauth2.ssl-key-pair."
    }
  ] }